{
  "AWSTemplateFormatVersion": "2010-09-09",
  "Resources": {
    "codeDeployBucket": {
      "Type" : "AWS::S3::Bucket",
      "Properties" : {
        "BucketName" : "bbci-code-deploy-demo",
        "Tags" : [
          { "Key": "owner", "Value": "ggatus"},
          { "Key": "team", "Value": "bitbucket-pipelines"},
          { "Key": "Name", "Value": "ggatus-codedeploy-instance"}
        ]
      }
    }
  }
}
